{
    "name": "Welcome Screen 2",
    "placeholders": [
        {
            "type": "Text",
            "title": "Headline - use [store.storeCode]",
            "reference": "headline",
            "isMandatory": false,
            "limit": 28,
            "order": 0,
            "fieldPlaceholder":"Welcome to Suncorp Tamworth"
        }
    ]
}